(threads=1): rank=1500 iterations=10000 time=49.0439
(threads=2): rank=1500 iterations=10000 time=25.1826
(threads=3): rank=1500 iterations=10000 time=17.1889
(threads=4): rank=1500 iterations=10000 time=13.099
(threads=5): rank=1500 iterations=10000 time=10.6539
(threads=6): rank=1500 iterations=10000 time=9.2544
(threads=7): rank=1500 iterations=10000 time=15.0472
(threads=8): rank=1500 iterations=10000 time=13.207
(threads=9): rank=1500 iterations=10000 time=11.8599
(threads=10): rank=1500 iterations=10000 time=10.8319
(threads=11): rank=1500 iterations=10000 time=9.90868
(threads=12): rank=1500 iterations=10000 time=9.41156